Ex_cache_final/TwoWayAssociative/CacheController1.vcd
$date
	Mon May 15 20:31:48 2017
$end

$version
	Synopsys VCS version J-2014.12_Full64
$end

$timescale
	1ps
$end

$comment Csum: 1 04a8d63f66dde18d $end


$scope module CacheController_tb1 $end
$var reg 1 ! clk $end
$var reg 1 " rst $end
$var reg 1 # wr $end
$var reg 1 $ rd $end
$var wire 32 % data_rd [31:0] $end
$var reg 32 & data_wr [31:0] $end
$var reg 32 ' addr_req [31:0] $end
$var wire 32 ( addr_resp [31:0] $end
$var wire 1 ) rdy $end
$var wire 1 * busy $end
$var wire 1 + wr_mem $end
$var wire 1 , rd_mem $end
$var reg 32 - data_rd_mem [31:0] $end
$var wire 32 . data_wr_mem [31:0] $end
$var wire 32 / addr_mem [31:0] $end
$var wire 32 0 cache_miss_count [31:0] $end
$var wire 32 1 cache_hit_count [31:0] $end
$var reg 32 2 counter [31:0] $end
$var wire 32 3 test000 [31:0] $end
$var wire 32 4 test001 [31:0] $end
$var wire 32 5 test002 [31:0] $end
$var wire 32 6 test003 [31:0] $end
$var wire 32 7 test004 [31:0] $end
$var wire 32 8 test005 [31:0] $end
$var wire 32 9 test006 [31:0] $end
$var wire 32 : test007 [31:0] $end
$var wire 32 ; test008 [31:0] $end
$var wire 32 < test009 [31:0] $end
$var wire 32 = test010 [31:0] $end
$var wire 32 > test011 [31:0] $end
$var wire 32 ? test012 [31:0] $end
$var wire 32 @ test013 [31:0] $end
$var wire 32 A test014 [31:0] $end
$var wire 32 B test015 [31:0] $end
$var integer 32 C fd $end
$var integer 32 D i $end
$var reg 32 E data [31:0] $end
$var reg 1 F cycle_end $end
$var reg 32 G cycle_count [31:0] $end
$var wire 30 H counter_for_wr [29:0] $end

$scope module DUT $end
$var wire 1 " rst $end
$var wire 1 ! clk $end
$var wire 1 # wr $end
$var wire 1 $ rd $end
$var reg 32 I data_rd [31:0] $end
$var wire 32 & data_wr [31:0] $end
$var wire 32 ' addr_req [31:0] $end
$var reg 32 ( addr_resp [31:0] $end
$var reg 1 ) rdy $end
$var reg 1 J busy $end
$var reg 1 K wr_mem $end
$var reg 1 L rd_mem $end
$var wire 1 M busy_mem $end
$var wire 32 - data_rd_mem [31:0] $end
$var reg 32 N data_wr_mem [31:0] $end
$var reg 32 O addr_mem [31:0] $end
$var reg 32 P cache_miss_count [31:0] $end
$var reg 32 Q cache_hit_count [31:0] $end
$var reg 8 R cache_valid_A [7:0] $end
$var reg 8 S cache_valid_B [7:0] $end
$var reg 8 T cache_dirty_A [7:0] $end
$var reg 8 U cache_dirty_B [7:0] $end
$var reg 8 V cache_line_count [7:0] $end
$var reg 32 W iCache_data_wr [31:0] $end
$var reg 1 X mem_done $end
$var reg 4 Y mem_data_cnt [3:0] $end
$var reg 1 Z rd_temp $end
$var wire 25 [ addr_tag [24:0] $end
$var wire 3 \ addr_index [2:0] $end
$var wire 4 ] addr_offset [3:0] $end
$var reg 1 ^ hit $end
$var reg 1 _ valid $end
$var reg 1 ` dirty $end
$var reg 1 a miss $end
$var reg 1 b SelectWay $end
$var reg 5 c state [4:0] $end
$var reg 5 d next_state [4:0] $end
$var reg 72 e state_asc [71:0] $end
$var reg 72 f nstate_asc [71:0] $end
$upscope $end

$upscope $end

$enddefinitions $end

#0
$dumpvars
1J
0L
0)
0K
xb
1*
0!
0F
0`
0^
1X
0a
0$
0,
1Z
1"
0_
0#
0+
b00000000000000000000000000000000 O
bzzzzzzzzzzzzzzzzzzzzzzzzzzzzzzzz (
bxxxxxxxxxxxxxxxxxxxxxxxxxxxxxxxx N
b000 \
b00000000000000000000000000000000 /
b00000000000000000000000000000000 '
b0000000000000000000000000 [
b00000000 T
b00000000 U
b00000000000000000000000000000000 Q
b00000000 V
b00000000000000000000000000000000 P
b00000000 R
b00000000 S
bxxxxxxxxxxxxxxxxxxxxxxxxxxxxxxxx 2
bxxxxxxxxxxxxxxxxxxxxxxxxxxxxxx H
bxxxxxxxxxxxxxxxxxxxxxxxxxxxxxxxx G
b00000000000000000000000000000000 E
bzzzzzzzzzzzzzzzzzzzzzzzzzzzzzzzz I
bxxxxxxxxxxxxxxxxxxxxxxxxxxxxxxxx -
b00000000000000000000000000000000 &
bxxxxxxxxxxxxxxxxxxxxxxxxxxxxxxxx .
b10000000000000000000000000000011 C
b00000000000001000000000000000000 D
bxxxxxxxxxxxxxxxxxxxxxxxxxxxxxxxx W
b0000 Y
b00001 d
b011010010110010001101100011001010010000000100000001000000010000000100000 f
b00001 c
b011010010110010001101100011001010010000000100000001000000010000000100000 e
bxxxx ]
bxxxxxxxxxxxxxxxxxxxxxxxxxxxxxxxx %
bxxxxxxxxxxxxxxxxxxxxxxxxxxxxxxxx 0
bxxxxxxxxxxxxxxxxxxxxxxxxxxxxxxxx 1
b01110011011010010110100001010100 3
b00100000011100110110100100100000 4
b01110011011000010110110001100011 5
b01010011010001010010000001110011 6
b00110110001101100011010101000101 7
b01100110011011110010000001000001 8
b01000101010100110100010100100000 9
b00100000011101000110000100100000 :
b00000000000000000010000101110011 ;
b00000000000000000000000000010001 <
b00000000000000000000000000010010 =
b00000000000000000000000000010011 >
b00000000000000000000000000010100 ?
b00000000000000000000000000010101 @
b00000000000000000000000000010110 A
b00000000000000000000000000010111 B
0M
$end
b0000 ]
bzzzzzzzzzzzzzzzzzzzzzzzzzzzzzzzz %
b00000000000000000000000000000000 0
b00000000000000000000000000000000 1
#10000
1!
b00000000000000000000000000000000 2
b000000000000000000000011110111 H
b00000000000000000000000000000000 G
#20000
0!
#30000
1!
#40000
0!
#50000
0"
1!
0J
0*
0X
1#
b00010 d
b011101000110000101100111010111110110001101101000011001010110001101101011 f
#60000
0!
#70000
1!
b00000000000000000000000000000001 2
b000000000000000000000011111000 H
b00010 c
1J
1*
b00000000000000000000000000000000 (
b00000000000000000000000000000000 W
0Z
1a
0b
b011101000110000101100111010111110110001101101000011001010110001101101011 e
b01000 d
b011100100110010101100110011010010110110001101100001000000010000000100000 f
#80000
0!
#90000
1!
b01000 c
b00000000000000000000000000000001 P
b00000000000000000000000000000001 0
1L
1,
b0100 Y
b00000001 R
b00000001 V
b011100100110010101100110011010010110110001101100001000000010000000100000 e
#100000
0!
b01110011011010010110100001010100 -
#110000
1!
b1000 Y
b00000000000000000000000000000100 O
b00000000000000000000000000000100 /
#120000
0!
b00100000011100110110100100100000 -
#130000
1!
b1100 Y
b00000000000000000000000000001000 O
b00000000000000000000000000001000 /
#140000
0!
b01110011011000010110110001100011 -
#150000
1!
1X
b0000 Y
b00000000000000000000000000001100 O
b00000000000000000000000000001100 /
b10000 d
b011000110110000101100011011010000110010101011111011011110111000000100000 f
#160000
0!
b01010011010001010010000001110011 -
#170000
1!
b10000 c
1)
0X
b00000001 T
b011000110110000101100011011010000110010101011111011011110111000000100000 e
b00001 d
b011010010110010001101100011001010010000000100000001000000010000000100000 f
#180000
0!
#190000
1!
b00001 c
0J
0*
0)
0L
0,
b00000000000000000000000000000000 O
b00000000000000000000000000000000 /
b011010010110010001101100011001010010000000100000001000000010000000100000 e
b00010 d
b00000000000000000000000000000100 '
b0100 ]
b00000000000000000000000000000001 &
b011101000110000101100111010111110110001101101000011001010110001101101011 f
#200000
0!
#210000
1!
b00000000000000000000000000000010 2
b000000000000000000000011111001 H
b00010 c
1J
1*
b00000000000000000000000000000100 (
b00000000000000000000000000000001 W
0a
1^
1_
b011101000110000101100111010111110110001101101000011001010110001101101011 e
b10000 d
b011000110110000101100011011010000110010101011111011011110111000000100000 f
#220000
0!
#230000
1!
b10000 c
1)
b00000000000000000000000000000001 Q
b00000000000000000000000000000001 1
b011000110110000101100011011010000110010101011111011011110111000000100000 e
b00001 d
b011010010110010001101100011001010010000000100000001000000010000000100000 f
#240000
0!
#250000
1!
b00001 c
0J
0*
0)
b011010010110010001101100011001010010000000100000001000000010000000100000 e
b00010 d
b00000000000000000000000000001000 '
b1000 ]
b00000000000000000000000000000010 &
b011101000110000101100111010111110110001101101000011001010110001101101011 f
#260000
0!
#270000
1!
b00000000000000000000000000000011 2
b000000000000000000000011111010 H
b00010 c
1J
1*
b00000000000000000000000000001000 (
b00000000000000000000000000000010 W
b011101000110000101100111010111110110001101101000011001010110001101101011 e
b10000 d
b011000110110000101100011011010000110010101011111011011110111000000100000 f
#280000
0!
#290000
1!
b10000 c
1)
b00000000000000000000000000000010 Q
b00000000000000000000000000000010 1
b011000110110000101100011011010000110010101011111011011110111000000100000 e
b00001 d
b011010010110010001101100011001010010000000100000001000000010000000100000 f
#300000
0!
#310000
1!
b00001 c
0J
0*
0)
b011010010110010001101100011001010010000000100000001000000010000000100000 e
b00010 d
b00000000000000000000000000001100 '
b1100 ]
b00000000000000000000000000000011 &
b011101000110000101100111010111110110001101101000011001010110001101101011 f
#320000
0!
#330000
1!
b00000000000000000000000000000100 2
b000000000000000000000011111011 H
b00010 c
1J
1*
b00000000000000000000000000001100 (
b00000000000000000000000000000011 W
b011101000110000101100111010111110110001101101000011001010110001101101011 e
b10000 d
b011000110110000101100011011010000110010101011111011011110111000000100000 f
#340000
0!
#350000
1!
b10000 c
1)
b00000000000000000000000000000011 Q
b00000000000000000000000000000011 1
b011000110110000101100011011010000110010101011111011011110111000000100000 e
b00001 d
b011010010110010001101100011001010010000000100000001000000010000000100000 f
#360000
0!
#370000
1!
b00001 c
0J
0*
0)
b011010010110010001101100011001010010000000100000001000000010000000100000 e
b00010 d
b00000000000000000000000000010000 '
b0000 ]
b001 \
b00000000000000000000000000000100 &
b011101000110000101100111010111110110001101101000011001010110001101101011 f
#380000
0!
#390000
1!
b00000000000000000000000000000101 2
b000000000000000000000011111100 H
b00010 c
1J
1*
b00000000000000000000000000010000 (
b00000000000000000000000000000100 W
0^
1a
0_
b011101000110000101100111010111110110001101101000011001010110001101101011 e
b01000 d
b011100100110010101100110011010010110110001101100001000000010000000100000 f
#400000
0!
#410000
1!
b01000 c
b00000000000000000000000000000010 P
b00000000000000000000000000000010 0
1L
1,
b0100 Y
b00000011 R
b00000011 V
b00000000000000000000000000010000 O
b00000000000000000000000000010000 /
b011100100110010101100110011010010110110001101100001000000010000000100000 e
#420000
0!
b00110110001101100011010101000101 -
#430000
1!
b1000 Y
b00000000000000000000000000010100 O
b00000000000000000000000000010100 /
#440000
0!
b01100110011011110010000001000001 -
#450000
1!
b1100 Y
b00000000000000000000000000011000 O
b00000000000000000000000000011000 /
#460000
0!
b01000101010100110100010100100000 -
#470000
1!
1X
b0000 Y
b00000000000000000000000000011100 O
b00000000000000000000000000011100 /
b10000 d
b011000110110000101100011011010000110010101011111011011110111000000100000 f
#480000
0!
b00100000011101000110000100100000 -
#490000
1!
b10000 c
1)
0X
b00000011 T
b011000110110000101100011011010000110010101011111011011110111000000100000 e
b00001 d
b011010010110010001101100011001010010000000100000001000000010000000100000 f
#500000
0!
#510000
1!
b00001 c
0J
0*
0)
0L
0,
b00000000000000000000000000000000 O
b00000000000000000000000000000000 /
b011010010110010001101100011001010010000000100000001000000010000000100000 e
b00010 d
b00000000000000000000000000010100 '
b0100 ]
b00000000000000000000000000000101 &
b011101000110000101100111010111110110001101101000011001010110001101101011 f
#520000
0!
#530000
1!
b00000000000000000000000000000110 2
b000000000000000000000011111101 H
b00010 c
1J
1*
b00000000000000000000000000010100 (
b00000000000000000000000000000101 W
0a
1^
1_
b011101000110000101100111010111110110001101101000011001010110001101101011 e
b10000 d
b011000110110000101100011011010000110010101011111011011110111000000100000 f
#540000
0!
#550000
1!
b10000 c
1)
b00000000000000000000000000000100 Q
b00000000000000000000000000000100 1
b011000110110000101100011011010000110010101011111011011110111000000100000 e
b00001 d
b011010010110010001101100011001010010000000100000001000000010000000100000 f
#560000
0!
#570000
1!
b00001 c
0J
0*
0)
b011010010110010001101100011001010010000000100000001000000010000000100000 e
b00010 d
b00000000000000000000000000011000 '
b1000 ]
b00000000000000000000000000000110 &
b011101000110000101100111010111110110001101101000011001010110001101101011 f
#580000
0!
#590000
1!
b00000000000000000000000000000111 2
b000000000000000000000011111110 H
b00010 c
1J
1*
b00000000000000000000000000011000 (
b00000000000000000000000000000110 W
b011101000110000101100111010111110110001101101000011001010110001101101011 e
b10000 d
b011000110110000101100011011010000110010101011111011011110111000000100000 f
#600000
0!
#610000
1!
b10000 c
1)
b00000000000000000000000000000101 Q
b00000000000000000000000000000101 1
b011000110110000101100011011010000110010101011111011011110111000000100000 e
b00001 d
b011010010110010001101100011001010010000000100000001000000010000000100000 f
#620000
0!
#630000
1!
b00001 c
0J
0*
0)
b011010010110010001101100011001010010000000100000001000000010000000100000 e
b00010 d
b00000000000000000000000000011100 '
b1100 ]
b00000000000000000000000000000111 &
b011101000110000101100111010111110110001101101000011001010110001101101011 f
#640000
0!
#650000
1!
b00000000000000000000000000001000 2
b000000000000000000000011111111 H
b00010 c
1J
1*
b00000000000000000000000000011100 (
b00000000000000000000000000000111 W
b011101000110000101100111010111110110001101101000011001010110001101101011 e
b10000 d
b011000110110000101100011011010000110010101011111011011110111000000100000 f
#660000
0!
#670000
1!
b10000 c
1)
b00000000000000000000000000000110 Q
b00000000000000000000000000000110 1
b011000110110000101100011011010000110010101011111011011110111000000100000 e
b00001 d
b011010010110010001101100011001010010000000100000001000000010000000100000 f
#680000
0!
#690000
1!
b00001 c
0J
0*
0)
b011010010110010001101100011001010010000000100000001000000010000000100000 e
b00010 d
0#
b00000000000000000000000100000000 '
b0000 ]
b000 \
b0000000000000000000000010 [
b011101000110000101100111010111110110001101101000011001010110001101101011 f
b00001 d
b011010010110010001101100011001010010000000100000001000000010000000100000 f
#700000
0!
#710000
1!
b00000000000000000000000000001001 2
b000000000000000000000100000000 H
1$
b00000000000000000000010000000000 '
b0000000000000000000001000 [
b00010 d
b011101000110000101100111010111110110001101101000011001010110001101101011 f
#720000
0!
#730000
1!
b00000000000000000000000000001010 2
b000000000000000000000100000001 H
b00010 c
1J
1*
b00000000000000000000010000000000 (
1Z
0^
1a
0_
1b
b011101000110000101100111010111110110001101101000011001010110001101101011 e
b01000 d
b011100100110010101100110011010010110110001101100001000000010000000100000 f
#740000
0!
#750000
1!
b01000 c
b00000000000000000000000000000011 P
b00000000000000000000000000000011 0
1L
1,
b0100 Y
b00000001 S
b00000010 V
b00000000000000000000010000000000 O
b00000000000000000000010000000000 /
b011100100110010101100110011010010110110001101100001000000010000000100000 e
#760000
0!
b00000000000000000000000100000000 -
#770000
1!
b1000 Y
b00000000000000000000010000000100 O
b00000000000000000000010000000100 /
#780000
0!
b00000000000000000000000100000001 -
#790000
1!
b1100 Y
b00000000000000000000010000001000 O
b00000000000000000000010000001000 /
#800000
0!
b00000000000000000000000100000010 -
#810000
1!
1X
b0000 Y
b00000000000000000000010000001100 O
b00000000000000000000010000001100 /
b10000 d
b011000110110000101100011011010000110010101011111011011110111000000100000 f
#820000
0!
b00000000000000000000000100000011 -
#830000
1!
b10000 c
1)
0X
b00100000011101000110000100100000 I
b00100000011101000110000100100000 %
b011000110110000101100011011010000110010101011111011011110111000000100000 e
b00001 d
b011010010110010001101100011001010010000000100000001000000010000000100000 f
#840000
0!
#850000
1!
b00001 c
0J
0*
0)
0L
0,
b00000000000000000000000000000000 O
b00000000000000000000000000000000 /
b011010010110010001101100011001010010000000100000001000000010000000100000 e
b00010 d
b00000000000000000000010000000100 '
b0100 ]
b011101000110000101100111010111110110001101101000011001010110001101101011 f
#860000
0!
#870000
1!
b00000000000000000000000000001011 2
b000000000000000000000100000010 H
b00010 c
1J
1*
b00000000000000000000010000000100 (
0a
1^
1_
b011101000110000101100111010111110110001101101000011001010110001101101011 e
b10000 d
b011000110110000101100011011010000110010101011111011011110111000000100000 f
#880000
0!
#890000
1!
b10000 c
1)
b00000000000000000000000000000111 Q
b00000000000000000000000000000111 1
b00000000000000000000000100000000 I
b00000000000000000000000100000000 %
b011000110110000101100011011010000110010101011111011011110111000000100000 e
b00001 d
b011010010110010001101100011001010010000000100000001000000010000000100000 f
#900000
0!
#910000
1!
b00001 c
0J
0*
0)
b011010010110010001101100011001010010000000100000001000000010000000100000 e
b00010 d
b00000000000000000000010000001000 '
b1000 ]
b011101000110000101100111010111110110001101101000011001010110001101101011 f
#920000
0!
#930000
1!
b00000000000000000000000000001100 2
b000000000000000000000100000011 H
b00010 c
1J
1*
b00000000000000000000010000001000 (
b011101000110000101100111010111110110001101101000011001010110001101101011 e
b10000 d
b011000110110000101100011011010000110010101011111011011110111000000100000 f
#940000
0!
#950000
1!
b10000 c
1)
b00000000000000000000000000001000 Q
b00000000000000000000000000001000 1
b00000000000000000000000100000001 I
b00000000000000000000000100000001 %
b011000110110000101100011011010000110010101011111011011110111000000100000 e
b00001 d
b011010010110010001101100011001010010000000100000001000000010000000100000 f
#960000
0!
#970000
1!
b00001 c
0J
0*
0)
b011010010110010001101100011001010010000000100000001000000010000000100000 e
b00010 d
b00000000000000000000010000001100 '
b1100 ]
b011101000110000101100111010111110110001101101000011001010110001101101011 f
#980000
0!
#990000
1!
b00000000000000000000000000001101 2
b000000000000000000000100000100 H
b00010 c
1J
1*
b00000000000000000000010000001100 (
b011101000110000101100111010111110110001101101000011001010110001101101011 e
b10000 d
b011000110110000101100011011010000110010101011111011011110111000000100000 f
#1000000
0!
#1010000
1!
b10000 c
1)
b00000000000000000000000000001001 Q
b00000000000000000000000000001001 1
b00000000000000000000000100000010 I
b00000000000000000000000100000010 %
b011000110110000101100011011010000110010101011111011011110111000000100000 e
b00001 d
b011010010110010001101100011001010010000000100000001000000010000000100000 f
#1020000
0!
#1030000
1!
b00001 c
0J
0*
0)
b011010010110010001101100011001010010000000100000001000000010000000100000 e
b00010 d
b00000000000000000000010000010000 '
b0000 ]
b001 \
b011101000110000101100111010111110110001101101000011001010110001101101011 f
#1040000
0!
#1050000
1!
b00000000000000000000000000001110 2
b000000000000000000000100000101 H
b00010 c
1J
1*
b00000000000000000000010000010000 (
0^
1a
0_
b011101000110000101100111010111110110001101101000011001010110001101101011 e
b01000 d
b011100100110010101100110011010010110110001101100001000000010000000100000 f
#1060000
0!
#1070000
1!
b01000 c
b00000000000000000000000000000100 P
b00000000000000000000000000000100 0
1L
1,
b0100 Y
b00000011 S
b00000000 V
b00000000000000000000010000010000 O
b00000000000000000000010000010000 /
b011100100110010101100110011010010110110001101100001000000010000000100000 e
#1080000
0!
b00000000000000000000000100000100 -
#1090000
1!
b1000 Y
b00000000000000000000010000010100 O
b00000000000000000000010000010100 /
#1100000
0!
b00000000000000000000000100000101 -
#1110000
1!
b1100 Y
b00000000000000000000010000011000 O
b00000000000000000000010000011000 /
#1120000
0!
b00000000000000000000000100000110 -
#1130000
1!
1X
b0000 Y
b00000000000000000000010000011100 O
b00000000000000000000010000011100 /
b10000 d
b011000110110000101100011011010000110010101011111011011110111000000100000 f
#1140000
0!
b00000000000000000000000100000111 -
#1150000
1!
b10000 c
1)
0X
b00000000000000000000000100000011 I
b00000000000000000000000100000011 %
b011000110110000101100011011010000110010101011111011011110111000000100000 e
b00001 d
b011010010110010001101100011001010010000000100000001000000010000000100000 f
#1160000
0!
#1170000
1!
b00001 c
0J
0*
0)
0L
0,
b00000000000000000000000000000000 O
b00000000000000000000000000000000 /
b011010010110010001101100011001010010000000100000001000000010000000100000 e
b00010 d
b00000000000000000000010000010100 '
b0100 ]
b011101000110000101100111010111110110001101101000011001010110001101101011 f
#1180000
0!
#1190000
1!
b00000000000000000000000000001111 2
b000000000000000000000100000110 H
b00010 c
1J
1*
b00000000000000000000010000010100 (
0a
1^
1_
b011101000110000101100111010111110110001101101000011001010110001101101011 e
b10000 d
b011000110110000101100011011010000110010101011111011011110111000000100000 f
#1200000
0!
#1210000
1!
b10000 c
1)
b00000000000000000000000000001010 Q
b00000000000000000000000000001010 1
b00000000000000000000000100000100 I
b00000000000000000000000100000100 %
b011000110110000101100011011010000110010101011111011011110111000000100000 e
b00001 d
b011010010110010001101100011001010010000000100000001000000010000000100000 f
#1220000
0!
#1230000
1!
b00001 c
0J
0*
0)
b011010010110010001101100011001010010000000100000001000000010000000100000 e
b00010 d
b00000000000000000000010000011000 '
b1000 ]
b011101000110000101100111010111110110001101101000011001010110001101101011 f
#1240000
0!
#1250000
1!
b00000000000000000000000000010000 2
b000000000000000000000100000111 H
b00010 c
1J
1*
b00000000000000000000010000011000 (
b011101000110000101100111010111110110001101101000011001010110001101101011 e
b10000 d
b011000110110000101100011011010000110010101011111011011110111000000100000 f
#1260000
0!
#1270000
1!
b10000 c
1)
b00000000000000000000000000001011 Q
b00000000000000000000000000001011 1
b00000000000000000000000100000101 I
b00000000000000000000000100000101 %
b011000110110000101100011011010000110010101011111011011110111000000100000 e
b00001 d
b011010010110010001101100011001010010000000100000001000000010000000100000 f
#1280000
0!
#1290000
1!
b00001 c
0J
0*
0)
b011010010110010001101100011001010010000000100000001000000010000000100000 e
b00010 d
b00000000000000000000010000011100 '
b1100 ]
b011101000110000101100111010111110110001101101000011001010110001101101011 f
#1300000
0!
#1310000
1!
b00000000000000000000000000010001 2
b000000000000000000000100001000 H
b00010 c
1J
1*
b00000000000000000000010000011100 (
b011101000110000101100111010111110110001101101000011001010110001101101011 e
b10000 d
b011000110110000101100011011010000110010101011111011011110111000000100000 f
#1320000
0!
#1330000
1!
b10000 c
1)
b00000000000000000000000000001100 Q
b00000000000000000000000000001100 1
b00000000000000000000000100000110 I
b00000000000000000000000100000110 %
b011000110110000101100011011010000110010101011111011011110111000000100000 e
b00001 d
b011010010110010001101100011001010010000000100000001000000010000000100000 f
#1340000
0!
#1350000
1!
b00001 c
0J
0*
0)
b011010010110010001101100011001010010000000100000001000000010000000100000 e
b00010 d
0$
1F
b011101000110000101100111010111110110001101101000011001010110001101101011 f
b00001 d
b011010010110010001101100011001010010000000100000001000000010000000100000 f
#1360000
0!
#1370000
1!
b00000000000000000000000000000000 2
b000000000000000000000011110111 H
b00000000000000000000000000000001 G
0F
1#
b00000000000000000000000000000000 '
b0000 ]
b000 \
b0000000000000000000000000 [
b00000000000000000000000000000000 &
b00010 d
b011101000110000101100111010111110110001101101000011001010110001101101011 f
#1380000
0!
#1390000
1!
b00000000000000000000000000000001 2
b000000000000000000000011111000 H
b00010 c
1J
1*
b00000000000000000000000000000000 (
b00000000000000000000000000000000 W
0Z
b011101000110000101100111010111110110001101101000011001010110001101101011 e
b10000 d
b011000110110000101100011011010000110010101011111011011110111000000100000 f
#1400000
0!
#1410000
1!
b10000 c
1)
b00000000000000000000000000001101 Q
b00000000000000000000000000001101 1
b011000110110000101100011011010000110010101011111011011110111000000100000 e
b00001 d
b011010010110010001101100011001010010000000100000001000000010000000100000 f
#1420000
0!
#1430000
1!
b00001 c
0J
0*
0)
b011010010110010001101100011001010010000000100000001000000010000000100000 e
b00010 d
b00000000000000000000000000000100 '
b0100 ]
b00000000000000000000000000000001 &
b011101000110000101100111010111110110001101101000011001010110001101101011 f
#1440000
0!
#1450000
1!
b00000000000000000000000000000010 2
b000000000000000000000011111001 H
b00010 c
1J
1*
b00000000000000000000000000000100 (
b00000000000000000000000000000001 W
b011101000110000101100111010111110110001101101000011001010110001101101011 e
b10000 d
b011000110110000101100011011010000110010101011111011011110111000000100000 f
#1460000
0!
#1470000
1!
b10000 c
1)
b00000000000000000000000000001110 Q
b00000000000000000000000000001110 1
b011000110110000101100011011010000110010101011111011011110111000000100000 e
b00001 d
b011010010110010001101100011001010010000000100000001000000010000000100000 f
#1480000
0!
#1490000
1!
b00001 c
0J
0*
0)
b011010010110010001101100011001010010000000100000001000000010000000100000 e
b00010 d
b00000000000000000000000000001000 '
b1000 ]
b00000000000000000000000000000010 &
b011101000110000101100111010111110110001101101000011001010110001101101011 f
#1500000
0!
#1510000
1!
b00000000000000000000000000000011 2
b000000000000000000000011111010 H
b00010 c
1J
1*
b00000000000000000000000000001000 (
b00000000000000000000000000000010 W
b011101000110000101100111010111110110001101101000011001010110001101101011 e
b10000 d
b011000110110000101100011011010000110010101011111011011110111000000100000 f
#1520000
0!
#1530000
1!
b10000 c
1)
b00000000000000000000000000001111 Q
b00000000000000000000000000001111 1
b011000110110000101100011011010000110010101011111011011110111000000100000 e
b00001 d
b011010010110010001101100011001010010000000100000001000000010000000100000 f
#1540000
0!
#1550000
1!
b00001 c
0J
0*
0)
b011010010110010001101100011001010010000000100000001000000010000000100000 e
b00010 d
b00000000000000000000000000001100 '
b1100 ]
b00000000000000000000000000000011 &
b011101000110000101100111010111110110001101101000011001010110001101101011 f
#1560000
0!
#1570000
1!
b00000000000000000000000000000100 2
b000000000000000000000011111011 H
b00010 c
1J
1*
b00000000000000000000000000001100 (
b00000000000000000000000000000011 W
b011101000110000101100111010111110110001101101000011001010110001101101011 e
b10000 d
b011000110110000101100011011010000110010101011111011011110111000000100000 f
#1580000
0!
#1590000
1!
b10000 c
1)
b00000000000000000000000000010000 Q
b00000000000000000000000000010000 1
b011000110110000101100011011010000110010101011111011011110111000000100000 e
b00001 d
b011010010110010001101100011001010010000000100000001000000010000000100000 f
#1600000
0!
#1610000
1!
b00001 c
0J
0*
0)
b011010010110010001101100011001010010000000100000001000000010000000100000 e
b00010 d
b00000000000000000000000000010000 '
b0000 ]
b001 \
b00000000000000000000000000000100 &
b011101000110000101100111010111110110001101101000011001010110001101101011 f
#1620000
0!
#1630000
1!
b00000000000000000000000000000101 2
b000000000000000000000011111100 H
b00010 c
1J
1*
b00000000000000000000000000010000 (
b00000000000000000000000000000100 W
b011101000110000101100111010111110110001101101000011001010110001101101011 e
b10000 d
b011000110110000101100011011010000110010101011111011011110111000000100000 f
#1640000
0!
#1650000
1!
b10000 c
1)
b00000000000000000000000000010001 Q
b00000000000000000000000000010001 1
b011000110110000101100011011010000110010101011111011011110111000000100000 e
b00001 d
b011010010110010001101100011001010010000000100000001000000010000000100000 f
#1660000
0!
#1670000
1!
b00001 c
0J
0*
0)
b011010010110010001101100011001010010000000100000001000000010000000100000 e
b00010 d
b00000000000000000000000000010100 '
b0100 ]
b00000000000000000000000000000101 &
b011101000110000101100111010111110110001101101000011001010110001101101011 f
#1680000
0!
#1690000
1!
b00000000000000000000000000000110 2
b000000000000000000000011111101 H
b00010 c
1J
1*
b00000000000000000000000000010100 (
b00000000000000000000000000000101 W
b011101000110000101100111010111110110001101101000011001010110001101101011 e
b10000 d
b011000110110000101100011011010000110010101011111011011110111000000100000 f
#1700000
0!
#1710000
1!
b10000 c
1)
b00000000000000000000000000010010 Q
b00000000000000000000000000010010 1
b011000110110000101100011011010000110010101011111011011110111000000100000 e
b00001 d
b011010010110010001101100011001010010000000100000001000000010000000100000 f
#1720000
0!
#1730000
1!
b00001 c
0J
0*
0)
b011010010110010001101100011001010010000000100000001000000010000000100000 e
b00010 d
b00000000000000000000000000011000 '
b1000 ]
b00000000000000000000000000000110 &
b011101000110000101100111010111110110001101101000011001010110001101101011 f
#1740000
0!
#1750000
1!
b00000000000000000000000000000111 2
b000000000000000000000011111110 H
b00010 c
1J
1*
b00000000000000000000000000011000 (
b00000000000000000000000000000110 W
b011101000110000101100111010111110110001101101000011001010110001101101011 e
b10000 d
b011000110110000101100011011010000110010101011111011011110111000000100000 f
#1760000
0!
#1770000
1!
b10000 c
1)
b00000000000000000000000000010011 Q
b00000000000000000000000000010011 1
b011000110110000101100011011010000110010101011111011011110111000000100000 e
b00001 d
b011010010110010001101100011001010010000000100000001000000010000000100000 f
#1780000
0!
#1790000
1!
b00001 c
0J
0*
0)
b011010010110010001101100011001010010000000100000001000000010000000100000 e
b00010 d
b00000000000000000000000000011100 '
b1100 ]
b00000000000000000000000000000111 &
b011101000110000101100111010111110110001101101000011001010110001101101011 f
#1800000
0!
#1810000
1!
b00000000000000000000000000001000 2
b000000000000000000000011111111 H
b00010 c
1J
1*
b00000000000000000000000000011100 (
b00000000000000000000000000000111 W
b011101000110000101100111010111110110001101101000011001010110001101101011 e
b10000 d
b011000110110000101100011011010000110010101011111011011110111000000100000 f
#1820000
0!
#1830000
1!
b10000 c
1)
b00000000000000000000000000010100 Q
b00000000000000000000000000010100 1
b011000110110000101100011011010000110010101011111011011110111000000100000 e
b00001 d
b011010010110010001101100011001010010000000100000001000000010000000100000 f
#1840000
0!
#1850000
1!
b00001 c
0J
0*
0)
b011010010110010001101100011001010010000000100000001000000010000000100000 e
b00010 d
0#
b00000000000000000000000100000000 '
b0000 ]
b000 \
b0000000000000000000000010 [
b011101000110000101100111010111110110001101101000011001010110001101101011 f
b00001 d
b011010010110010001101100011001010010000000100000001000000010000000100000 f
#1860000
0!
#1870000
1!
b00000000000000000000000000001001 2
b000000000000000000000100000000 H
1$
b00000000000000000000010000000000 '
b0000000000000000000001000 [
b00010 d
b011101000110000101100111010111110110001101101000011001010110001101101011 f
#1880000
0!
#1890000
1!
b00000000000000000000000000001010 2
b000000000000000000000100000001 H
b00010 c
1J
1*
b00000000000000000000010000000000 (
1Z
b011101000110000101100111010111110110001101101000011001010110001101101011 e
b10000 d
b011000110110000101100011011010000110010101011111011011110111000000100000 f
#1900000
0!
#1910000
1!
b10000 c
1)
b00000000000000000000000000010101 Q
b00000000000000000000000000010101 1
b00100000011101000110000100100000 I
b00100000011101000110000100100000 %
b011000110110000101100011011010000110010101011111011011110111000000100000 e
b00001 d
b011010010110010001101100011001010010000000100000001000000010000000100000 f
#1920000
0!
#1930000
1!
b00001 c
0J
0*
0)
b011010010110010001101100011001010010000000100000001000000010000000100000 e
b00010 d
b00000000000000000000010000000100 '
b0100 ]
b011101000110000101100111010111110110001101101000011001010110001101101011 f
#1940000
0!
#1950000
1!
b00000000000000000000000000001011 2
b000000000000000000000100000010 H
b00010 c
1J
1*
b00000000000000000000010000000100 (
b011101000110000101100111010111110110001101101000011001010110001101101011 e
b10000 d
b011000110110000101100011011010000110010101011111011011110111000000100000 f
#1960000
0!
