Ex_cache_final/TwoWayAssociative/CacheController.vcd
$date
	Mon May 15 20:31:48 2017
$end

$version
	Synopsys VCS version J-2014.12_Full64
$end

$timescale
	1ps
$end

$comment Csum: 1 9e32a85beecb3b52 $end


$scope module CacheController_tb $end
$var reg 1 ! clk $end
$var reg 1 " rst $end
$var reg 1 # wr $end
$var reg 1 $ rd $end
$var wire 32 % data_rd [31:0] $end
$var reg 32 & data_wr [31:0] $end
$var reg 32 ' addr_req [31:0] $end
$var wire 32 ( addr_resp [31:0] $end
$var wire 1 ) rdy $end
$var wire 1 * busy $end
$var wire 1 + wr_mem $end
$var wire 1 , rd_mem $end
$var reg 32 - data_rd_mem [31:0] $end
$var wire 32 . data_wr_mem [31:0] $end
$var wire 32 / addr_mem [31:0] $end
$var wire 32 0 cache_miss_count [31:0] $end
$var wire 32 1 cache_hit_count [31:0] $end
$var reg 32 2 counter [31:0] $end
$var wire 32 3 test000 [31:0] $end
$var wire 32 4 test001 [31:0] $end
$var wire 32 5 test002 [31:0] $end
$var wire 32 6 test003 [31:0] $end
$var wire 32 7 test004 [31:0] $end
$var wire 32 8 test005 [31:0] $end
$var wire 32 9 test006 [31:0] $end
$var wire 32 : test007 [31:0] $end
$var wire 32 ; test008 [31:0] $end
$var wire 32 < test009 [31:0] $end
$var wire 32 = test010 [31:0] $end
$var wire 32 > test011 [31:0] $end
$var wire 32 ? test012 [31:0] $end
$var wire 32 @ test013 [31:0] $end
$var wire 32 A test014 [31:0] $end
$var wire 32 B test015 [31:0] $end
$var integer 32 C fd $end
$var integer 32 D i $end
$var reg 32 E data [31:0] $end
$var wire 30 F counter_for_wr [29:0] $end

$scope module DUT $end
$var wire 1 " rst $end
$var wire 1 ! clk $end
$var wire 1 # wr $end
$var wire 1 $ rd $end
$var reg 32 G data_rd [31:0] $end
$var wire 32 & data_wr [31:0] $end
$var wire 32 ' addr_req [31:0] $end
$var reg 32 ( addr_resp [31:0] $end
$var reg 1 ) rdy $end
$var reg 1 H busy $end
$var reg 1 I wr_mem $end
$var reg 1 J rd_mem $end
$var wire 1 K busy_mem $end
$var wire 32 - data_rd_mem [31:0] $end
$var reg 32 L data_wr_mem [31:0] $end
$var reg 32 M addr_mem [31:0] $end
$var reg 32 N cache_miss_count [31:0] $end
$var reg 32 O cache_hit_count [31:0] $end
$var reg 8 P cache_valid_A [7:0] $end
$var reg 8 Q cache_valid_B [7:0] $end
$var reg 8 R cache_dirty_A [7:0] $end
$var reg 8 S cache_dirty_B [7:0] $end
$var reg 8 T cache_line_count [7:0] $end
$var reg 32 U iCache_data_wr [31:0] $end
$var reg 1 V mem_done $end
$var reg 4 W mem_data_cnt [3:0] $end
$var reg 1 X rd_temp $end
$var wire 25 Y addr_tag [24:0] $end
$var wire 3 Z addr_index [2:0] $end
$var wire 4 [ addr_offset [3:0] $end
$var reg 1 \ hit $end
$var reg 1 ] valid $end
$var reg 1 ^ dirty $end
$var reg 1 _ miss $end
$var reg 1 ` SelectWay $end
$var reg 5 a state [4:0] $end
$var reg 5 b next_state [4:0] $end
$var reg 72 c state_asc [71:0] $end
$var reg 72 d nstate_asc [71:0] $end
$upscope $end

$upscope $end

$enddefinitions $end

#0
$dumpvars
1H
0J
0)
0I
x`
1*
0!
0^
0\
1V
0_
0$
0,
1X
1"
0]
0#
0+
b00000000000000000000000000000000 M
bzzzzzzzzzzzzzzzzzzzzzzzzzzzzzzzz (
bxxxxxxxxxxxxxxxxxxxxxxxxxxxxxxxx L
b000 Z
b00000000000000000000000000000000 /
b00000000000000000000000000000000 '
b0000000000000000000000000 Y
b00000000 R
b00000000 S
b00000000000000000000000000000000 O
b00000000 T
b00000000000000000000000000000000 N
b00000000 P
b00000000 Q
bxxxxxxxxxxxxxxxxxxxxxxxxxxxxxxxx 2
bxxxxxxxxxxxxxxxxxxxxxxxxxxxxxx F
b00000000000000000000000000000000 E
bzzzzzzzzzzzzzzzzzzzzzzzzzzzzzzzz G
bxxxxxxxxxxxxxxxxxxxxxxxxxxxxxxxx -
b00000000000000000000000000000000 &
bxxxxxxxxxxxxxxxxxxxxxxxxxxxxxxxx .
b10000000000000000000000000000011 C
b00000000000001000000000000000000 D
bxxxxxxxxxxxxxxxxxxxxxxxxxxxxxxxx U
b0000 W
b00001 b
b011010010110010001101100011001010010000000100000001000000010000000100000 d
b00001 a
b011010010110010001101100011001010010000000100000001000000010000000100000 c
bxxxx [
bxxxxxxxxxxxxxxxxxxxxxxxxxxxxxxxx %
bxxxxxxxxxxxxxxxxxxxxxxxxxxxxxxxx 0
bxxxxxxxxxxxxxxxxxxxxxxxxxxxxxxxx 1
b01110011011010010110100001010100 3
b00100000011100110110100100100000 4
b01110011011000010110110001100011 5
b01010011010001010010000001110011 6
b00110110001101100011010101000101 7
b01100110011011110010000001000001 8
b01000101010100110100010100100000 9
b00100000011101000110000100100000 :
b01101000011100110110000101010111 ;
b01110100011001110110111001101001 <
b01010101001000000110111001101111 =
b01100101011101100110100101101110 >
b01110100011010010111001101110010 ?
b01101110011010010010000001111001 @
b00101110011101000101001100100000 A
b01101001011101010110111101001100 B
0K
$end
b0000 [
bzzzzzzzzzzzzzzzzzzzzzzzzzzzzzzzz %
b00000000000000000000000000000000 0
b00000000000000000000000000000000 1
#10000
1!
b00000000000000000000000000000000 2
b111111111111111111111011111111 F
#20000
0!
#30000
1!
#40000
0!
#50000
0"
1!
0H
0*
0V
1#
b00010 b
b011101000110000101100111010111110110001101101000011001010110001101101011 d
#60000
0!
#70000
1!
b00000000000000000000000000000001 2
b111111111111111111111100000000 F
b00010 a
1H
1*
b00000000000000000000000000000000 (
b00000000000000000000000000000000 U
0X
1_
0`
b011101000110000101100111010111110110001101101000011001010110001101101011 c
b01000 b
b011100100110010101100110011010010110110001101100001000000010000000100000 d
#80000
0!
#90000
1!
b01000 a
b00000000000000000000000000000001 N
b00000000000000000000000000000001 0
1J
1,
b0100 W
b00000001 P
b00000001 T
b011100100110010101100110011010010110110001101100001000000010000000100000 c
#100000
0!
b01110011011010010110100001010100 -
#110000
1!
b1000 W
b00000000000000000000000000000100 M
b00000000000000000000000000000100 /
#120000
0!
b00100000011100110110100100100000 -
#130000
1!
b1100 W
b00000000000000000000000000001000 M
b00000000000000000000000000001000 /
#140000
0!
b01110011011000010110110001100011 -
#150000
1!
1V
b0000 W
b00000000000000000000000000001100 M
b00000000000000000000000000001100 /
b10000 b
b011000110110000101100011011010000110010101011111011011110111000000100000 d
#160000
0!
b01010011010001010010000001110011 -
#170000
1!
b10000 a
1)
0V
b00000001 R
b011000110110000101100011011010000110010101011111011011110111000000100000 c
b00001 b
b011010010110010001101100011001010010000000100000001000000010000000100000 d
#180000
0!
#190000
1!
b00001 a
0H
0*
0)
0J
0,
b00000000000000000000000000000000 M
b00000000000000000000000000000000 /
b011010010110010001101100011001010010000000100000001000000010000000100000 c
b00010 b
b00000000000000000000000000000100 '
b0100 [
b00000000000000000000000000000001 &
b011101000110000101100111010111110110001101101000011001010110001101101011 d
#200000
0!
#210000
1!
b00000000000000000000000000000010 2
b111111111111111111111100000001 F
b00010 a
1H
1*
b00000000000000000000000000000100 (
b00000000000000000000000000000001 U
0_
1\
1]
b011101000110000101100111010111110110001101101000011001010110001101101011 c
b10000 b
b011000110110000101100011011010000110010101011111011011110111000000100000 d
#220000
0!
#230000
1!
b10000 a
1)
b00000000000000000000000000000001 O
b00000000000000000000000000000001 1
b011000110110000101100011011010000110010101011111011011110111000000100000 c
b00001 b
b011010010110010001101100011001010010000000100000001000000010000000100000 d
#240000
0!
#250000
1!
b00001 a
0H
0*
0)
b011010010110010001101100011001010010000000100000001000000010000000100000 c
b00010 b
b00000000000000000000000000001000 '
b1000 [
b00000000000000000000000000000010 &
b011101000110000101100111010111110110001101101000011001010110001101101011 d
#260000
0!
#270000
1!
b00000000000000000000000000000011 2
b111111111111111111111100000010 F
b00010 a
1H
1*
b00000000000000000000000000001000 (
b00000000000000000000000000000010 U
b011101000110000101100111010111110110001101101000011001010110001101101011 c
b10000 b
b011000110110000101100011011010000110010101011111011011110111000000100000 d
#280000
0!
#290000
1!
b10000 a
1)
b00000000000000000000000000000010 O
b00000000000000000000000000000010 1
b011000110110000101100011011010000110010101011111011011110111000000100000 c
b00001 b
b011010010110010001101100011001010010000000100000001000000010000000100000 d
#300000
0!
#310000
1!
b00001 a
0H
0*
0)
b011010010110010001101100011001010010000000100000001000000010000000100000 c
b00010 b
b00000000000000000000000000001100 '
b1100 [
b00000000000000000000000000000011 &
b011101000110000101100111010111110110001101101000011001010110001101101011 d
#320000
0!
#330000
1!
b00000000000000000000000000000100 2
b111111111111111111111100000011 F
b00010 a
1H
1*
b00000000000000000000000000001100 (
b00000000000000000000000000000011 U
b011101000110000101100111010111110110001101101000011001010110001101101011 c
b10000 b
b011000110110000101100011011010000110010101011111011011110111000000100000 d
#340000
0!
#350000
1!
b10000 a
1)
b00000000000000000000000000000011 O
b00000000000000000000000000000011 1
b011000110110000101100011011010000110010101011111011011110111000000100000 c
b00001 b
b011010010110010001101100011001010010000000100000001000000010000000100000 d
#360000
0!
#370000
1!
b00001 a
0H
0*
0)
b011010010110010001101100011001010010000000100000001000000010000000100000 c
b00010 b
b00000000000000000000000000010000 '
b0000 [
b001 Z
b00000000000000000000000000000100 &
b011101000110000101100111010111110110001101101000011001010110001101101011 d
#380000
0!
#390000
1!
b00000000000000000000000000000101 2
b111111111111111111111100000100 F
b00010 a
1H
1*
b00000000000000000000000000010000 (
b00000000000000000000000000000100 U
0\
1_
0]
b011101000110000101100111010111110110001101101000011001010110001101101011 c
b01000 b
b011100100110010101100110011010010110110001101100001000000010000000100000 d
#400000
0!
#410000
1!
b01000 a
b00000000000000000000000000000010 N
b00000000000000000000000000000010 0
1J
1,
b0100 W
b00000011 P
b00000011 T
b00000000000000000000000000010000 M
b00000000000000000000000000010000 /
b011100100110010101100110011010010110110001101100001000000010000000100000 c
#420000
0!
b00110110001101100011010101000101 -
#430000
1!
b1000 W
b00000000000000000000000000010100 M
b00000000000000000000000000010100 /
#440000
0!
b01100110011011110010000001000001 -
#450000
1!
b1100 W
b00000000000000000000000000011000 M
b00000000000000000000000000011000 /
#460000
0!
b01000101010100110100010100100000 -
#470000
1!
1V
b0000 W
b00000000000000000000000000011100 M
b00000000000000000000000000011100 /
b10000 b
b011000110110000101100011011010000110010101011111011011110111000000100000 d
#480000
0!
b00100000011101000110000100100000 -
#490000
1!
b10000 a
1)
0V
b00000011 R
b011000110110000101100011011010000110010101011111011011110111000000100000 c
b00001 b
b011010010110010001101100011001010010000000100000001000000010000000100000 d
#500000
0!
#510000
1!
b00001 a
0H
0*
0)
0J
0,
b00000000000000000000000000000000 M
b00000000000000000000000000000000 /
b011010010110010001101100011001010010000000100000001000000010000000100000 c
b00010 b
b00000000000000000000000000010100 '
b0100 [
b00000000000000000000000000000101 &
b011101000110000101100111010111110110001101101000011001010110001101101011 d
#520000
0!
#530000
1!
b00000000000000000000000000000110 2
b111111111111111111111100000101 F
b00010 a
1H
1*
b00000000000000000000000000010100 (
b00000000000000000000000000000101 U
0_
1\
1]
b011101000110000101100111010111110110001101101000011001010110001101101011 c
b10000 b
b011000110110000101100011011010000110010101011111011011110111000000100000 d
#540000
0!
#550000
1!
b10000 a
1)
b00000000000000000000000000000100 O
b00000000000000000000000000000100 1
b011000110110000101100011011010000110010101011111011011110111000000100000 c
b00001 b
b011010010110010001101100011001010010000000100000001000000010000000100000 d
#560000
0!
#570000
1!
b00001 a
0H
0*
0)
b011010010110010001101100011001010010000000100000001000000010000000100000 c
b00010 b
b00000000000000000000000000011000 '
b1000 [
b00000000000000000000000000000110 &
b011101000110000101100111010111110110001101101000011001010110001101101011 d
#580000
0!
#590000
1!
b00000000000000000000000000000111 2
b111111111111111111111100000110 F
b00010 a
1H
1*
b00000000000000000000000000011000 (
b00000000000000000000000000000110 U
b011101000110000101100111010111110110001101101000011001010110001101101011 c
b10000 b
b011000110110000101100011011010000110010101011111011011110111000000100000 d
#600000
0!
#610000
1!
b10000 a
1)
b00000000000000000000000000000101 O
b00000000000000000000000000000101 1
b011000110110000101100011011010000110010101011111011011110111000000100000 c
b00001 b
b011010010110010001101100011001010010000000100000001000000010000000100000 d
#620000
0!
#630000
1!
b00001 a
0H
0*
0)
b011010010110010001101100011001010010000000100000001000000010000000100000 c
b00010 b
b00000000000000000000000000011100 '
b1100 [
b00000000000000000000000000000111 &
b011101000110000101100111010111110110001101101000011001010110001101101011 d
#640000
0!
#650000
1!
b00000000000000000000000000001000 2
b111111111111111111111100000111 F
b00010 a
1H
1*
b00000000000000000000000000011100 (
b00000000000000000000000000000111 U
b011101000110000101100111010111110110001101101000011001010110001101101011 c
b10000 b
b011000110110000101100011011010000110010101011111011011110111000000100000 d
#660000
0!
#670000
1!
b10000 a
1)
b00000000000000000000000000000110 O
b00000000000000000000000000000110 1
b011000110110000101100011011010000110010101011111011011110111000000100000 c
b00001 b
b011010010110010001101100011001010010000000100000001000000010000000100000 d
#680000
0!
#690000
1!
b00001 a
0H
0*
0)
b011010010110010001101100011001010010000000100000001000000010000000100000 c
b00010 b
b00000000000000000000000000100000 '
b0000 [
b010 Z
b00000000000000000000000000001000 &
b011101000110000101100111010111110110001101101000011001010110001101101011 d
#700000
0!
#710000
1!
b00000000000000000000000000001001 2
b111111111111111111111100001000 F
b00010 a
1H
1*
b00000000000000000000000000100000 (
b00000000000000000000000000001000 U
0\
1_
0]
b011101000110000101100111010111110110001101101000011001010110001101101011 c
b01000 b
b011100100110010101100110011010010110110001101100001000000010000000100000 d
#720000
0!
#730000
1!
b01000 a
b00000000000000000000000000000011 N
b00000000000000000000000000000011 0
1J
1,
b0100 W
b00000111 P
b00000111 T
b00000000000000000000000000100000 M
b00000000000000000000000000100000 /
b011100100110010101100110011010010110110001101100001000000010000000100000 c
#740000
0!
b01101000011100110110000101010111 -
#750000
1!
b1000 W
b00000000000000000000000000100100 M
b00000000000000000000000000100100 /
#760000
0!
b01110100011001110110111001101001 -
#770000
1!
b1100 W
b00000000000000000000000000101000 M
b00000000000000000000000000101000 /
#780000
0!
b01010101001000000110111001101111 -
#790000
1!
1V
b0000 W
b00000000000000000000000000101100 M
b00000000000000000000000000101100 /
b10000 b
b011000110110000101100011011010000110010101011111011011110111000000100000 d
#800000
0!
b01100101011101100110100101101110 -
#810000
1!
b10000 a
1)
0V
b00000111 R
b011000110110000101100011011010000110010101011111011011110111000000100000 c
b00001 b
b011010010110010001101100011001010010000000100000001000000010000000100000 d
#820000
0!
#830000
1!
b00001 a
0H
0*
0)
0J
0,
b00000000000000000000000000000000 M
b00000000000000000000000000000000 /
b011010010110010001101100011001010010000000100000001000000010000000100000 c
b00010 b
b00000000000000000000000000100100 '
b0100 [
b00000000000000000000000000001001 &
b011101000110000101100111010111110110001101101000011001010110001101101011 d
#840000
0!
#850000
1!
b00000000000000000000000000001010 2
b111111111111111111111100001001 F
b00010 a
1H
1*
b00000000000000000000000000100100 (
b00000000000000000000000000001001 U
0_
1\
1]
b011101000110000101100111010111110110001101101000011001010110001101101011 c
b10000 b
b011000110110000101100011011010000110010101011111011011110111000000100000 d
#860000
0!
#870000
1!
b10000 a
1)
b00000000000000000000000000000111 O
b00000000000000000000000000000111 1
b011000110110000101100011011010000110010101011111011011110111000000100000 c
b00001 b
b011010010110010001101100011001010010000000100000001000000010000000100000 d
#880000
0!
#890000
1!
b00001 a
0H
0*
0)
b011010010110010001101100011001010010000000100000001000000010000000100000 c
b00010 b
b00000000000000000000000000101000 '
b1000 [
b00000000000000000000000000001010 &
b011101000110000101100111010111110110001101101000011001010110001101101011 d
#900000
0!
#910000
1!
b00000000000000000000000000001011 2
b111111111111111111111100001010 F
b00010 a
1H
1*
b00000000000000000000000000101000 (
b00000000000000000000000000001010 U
b011101000110000101100111010111110110001101101000011001010110001101101011 c
b10000 b
b011000110110000101100011011010000110010101011111011011110111000000100000 d
#920000
0!
#930000
1!
b10000 a
1)
b00000000000000000000000000001000 O
b00000000000000000000000000001000 1
b011000110110000101100011011010000110010101011111011011110111000000100000 c
b00001 b
b011010010110010001101100011001010010000000100000001000000010000000100000 d
#940000
0!
#950000
1!
b00001 a
0H
0*
0)
b011010010110010001101100011001010010000000100000001000000010000000100000 c
b00010 b
b00000000000000000000000000101100 '
b1100 [
b00000000000000000000000000001011 &
b011101000110000101100111010111110110001101101000011001010110001101101011 d
#960000
0!
#970000
1!
b00000000000000000000000000001100 2
b111111111111111111111100001011 F
b00010 a
1H
1*
b00000000000000000000000000101100 (
b00000000000000000000000000001011 U
b011101000110000101100111010111110110001101101000011001010110001101101011 c
b10000 b
b011000110110000101100011011010000110010101011111011011110111000000100000 d
#980000
0!
#990000
1!
b10000 a
1)
b00000000000000000000000000001001 O
b00000000000000000000000000001001 1
b011000110110000101100011011010000110010101011111011011110111000000100000 c
b00001 b
b011010010110010001101100011001010010000000100000001000000010000000100000 d
#1000000
0!
#1010000
1!
b00001 a
0H
0*
0)
b011010010110010001101100011001010010000000100000001000000010000000100000 c
b00010 b
b00000000000000000000000000110000 '
b0000 [
b011 Z
b00000000000000000000000000001100 &
b011101000110000101100111010111110110001101101000011001010110001101101011 d
#1020000
0!
#1030000
1!
b00000000000000000000000000001101 2
b111111111111111111111100001100 F
b00010 a
1H
1*
b00000000000000000000000000110000 (
b00000000000000000000000000001100 U
0\
1_
0]
b011101000110000101100111010111110110001101101000011001010110001101101011 c
b01000 b
b011100100110010101100110011010010110110001101100001000000010000000100000 d
#1040000
0!
#1050000
1!
b01000 a
b00000000000000000000000000000100 N
b00000000000000000000000000000100 0
1J
1,
b0100 W
b00001111 P
b00001111 T
b00000000000000000000000000110000 M
b00000000000000000000000000110000 /
b011100100110010101100110011010010110110001101100001000000010000000100000 c
#1060000
0!
b01110100011010010111001101110010 -
#1070000
1!
b1000 W
b00000000000000000000000000110100 M
b00000000000000000000000000110100 /
#1080000
0!
b01101110011010010010000001111001 -
#1090000
1!
b1100 W
b00000000000000000000000000111000 M
b00000000000000000000000000111000 /
#1100000
0!
b00101110011101000101001100100000 -
#1110000
1!
1V
b0000 W
b00000000000000000000000000111100 M
b00000000000000000000000000111100 /
b10000 b
b011000110110000101100011011010000110010101011111011011110111000000100000 d
#1120000
0!
b01101001011101010110111101001100 -
#1130000
1!
b10000 a
1)
0V
b00001111 R
b011000110110000101100011011010000110010101011111011011110111000000100000 c
b00001 b
b011010010110010001101100011001010010000000100000001000000010000000100000 d
#1140000
0!
#1150000
1!
b00001 a
0H
0*
0)
0J
0,
b00000000000000000000000000000000 M
b00000000000000000000000000000000 /
b011010010110010001101100011001010010000000100000001000000010000000100000 c
b00010 b
b00000000000000000000000000110100 '
b0100 [
b00000000000000000000000000001101 &
b011101000110000101100111010111110110001101101000011001010110001101101011 d
#1160000
0!
#1170000
1!
b00000000000000000000000000001110 2
b111111111111111111111100001101 F
b00010 a
1H
1*
b00000000000000000000000000110100 (
b00000000000000000000000000001101 U
0_
1\
1]
b011101000110000101100111010111110110001101101000011001010110001101101011 c
b10000 b
b011000110110000101100011011010000110010101011111011011110111000000100000 d
#1180000
0!
#1190000
1!
b10000 a
1)
b00000000000000000000000000001010 O
b00000000000000000000000000001010 1
b011000110110000101100011011010000110010101011111011011110111000000100000 c
b00001 b
b011010010110010001101100011001010010000000100000001000000010000000100000 d
#1200000
0!
#1210000
1!
b00001 a
0H
0*
0)
b011010010110010001101100011001010010000000100000001000000010000000100000 c
b00010 b
b00000000000000000000000000111000 '
b1000 [
b00000000000000000000000000001110 &
b011101000110000101100111010111110110001101101000011001010110001101101011 d
#1220000
0!
#1230000
1!
b00000000000000000000000000001111 2
b111111111111111111111100001110 F
b00010 a
1H
1*
b00000000000000000000000000111000 (
b00000000000000000000000000001110 U
b011101000110000101100111010111110110001101101000011001010110001101101011 c
b10000 b
b011000110110000101100011011010000110010101011111011011110111000000100000 d
#1240000
0!
#1250000
1!
b10000 a
1)
b00000000000000000000000000001011 O
b00000000000000000000000000001011 1
b011000110110000101100011011010000110010101011111011011110111000000100000 c
b00001 b
b011010010110010001101100011001010010000000100000001000000010000000100000 d
#1260000
0!
#1270000
1!
b00001 a
0H
0*
0)
b011010010110010001101100011001010010000000100000001000000010000000100000 c
b00010 b
b00000000000000000000000000111100 '
b1100 [
b00000000000000000000000000001111 &
b011101000110000101100111010111110110001101101000011001010110001101101011 d
#1280000
0!
#1290000
1!
b00000000000000000000000000010000 2
b111111111111111111111100001111 F
b00010 a
1H
1*
b00000000000000000000000000111100 (
b00000000000000000000000000001111 U
b011101000110000101100111010111110110001101101000011001010110001101101011 c
b10000 b
b011000110110000101100011011010000110010101011111011011110111000000100000 d
#1300000
0!
#1310000
1!
b10000 a
1)
b00000000000000000000000000001100 O
b00000000000000000000000000001100 1
b011000110110000101100011011010000110010101011111011011110111000000100000 c
b00001 b
b011010010110010001101100011001010010000000100000001000000010000000100000 d
#1320000
0!
#1330000
1!
b00001 a
0H
0*
0)
b011010010110010001101100011001010010000000100000001000000010000000100000 c
b00010 b
b00000000000000000000000001000000 '
b0000 [
b100 Z
b00000000000000000000000000010000 &
b011101000110000101100111010111110110001101101000011001010110001101101011 d
#1340000
0!
#1350000
1!
b00000000000000000000000000010001 2
b111111111111111111111100010000 F
b00010 a
1H
1*
b00000000000000000000000001000000 (
b00000000000000000000000000010000 U
0\
1_
0]
b011101000110000101100111010111110110001101101000011001010110001101101011 c
b01000 b
b011100100110010101100110011010010110110001101100001000000010000000100000 d
#1360000
0!
#1370000
1!
b01000 a
b00000000000000000000000000000101 N
b00000000000000000000000000000101 0
1J
1,
b0100 W
b00011111 P
b00011111 T
b00000000000000000000000001000000 M
b00000000000000000000000001000000 /
b011100100110010101100110011010010110110001101100001000000010000000100000 c
#1380000
0!
b00000000000000000010000101110011 -
#1390000
1!
b1000 W
b00000000000000000000000001000100 M
b00000000000000000000000001000100 /
#1400000
0!
b00000000000000000000000000010001 -
#1410000
1!
b1100 W
b00000000000000000000000001001000 M
b00000000000000000000000001001000 /
#1420000
0!
b00000000000000000000000000010010 -
#1430000
1!
1V
b0000 W
b00000000000000000000000001001100 M
b00000000000000000000000001001100 /
b10000 b
b011000110110000101100011011010000110010101011111011011110111000000100000 d
#1440000
0!
b00000000000000000000000000010011 -
#1450000
1!
b10000 a
1)
0V
b00011111 R
b011000110110000101100011011010000110010101011111011011110111000000100000 c
b00001 b
b011010010110010001101100011001010010000000100000001000000010000000100000 d
#1460000
0!
#1470000
1!
b00001 a
0H
0*
0)
0J
0,
b00000000000000000000000000000000 M
b00000000000000000000000000000000 /
b011010010110010001101100011001010010000000100000001000000010000000100000 c
b00010 b
b00000000000000000000000001000100 '
b0100 [
b00000000000000000000000000010001 &
b011101000110000101100111010111110110001101101000011001010110001101101011 d
#1480000
0!
#1490000
1!
b00000000000000000000000000010010 2
b111111111111111111111100010001 F
b00010 a
1H
1*
b00000000000000000000000001000100 (
b00000000000000000000000000010001 U
0_
1\
1]
b011101000110000101100111010111110110001101101000011001010110001101101011 c
b10000 b
b011000110110000101100011011010000110010101011111011011110111000000100000 d
#1500000
0!
#1510000
1!
b10000 a
1)
b00000000000000000000000000001101 O
b00000000000000000000000000001101 1
b011000110110000101100011011010000110010101011111011011110111000000100000 c
b00001 b
b011010010110010001101100011001010010000000100000001000000010000000100000 d
#1520000
0!
#1530000
1!
b00001 a
0H
0*
0)
b011010010110010001101100011001010010000000100000001000000010000000100000 c
b00010 b
b00000000000000000000000001001000 '
b1000 [
b00000000000000000000000000010010 &
b011101000110000101100111010111110110001101101000011001010110001101101011 d
#1540000
0!
#1550000
1!
b00000000000000000000000000010011 2
b111111111111111111111100010010 F
b00010 a
1H
1*
b00000000000000000000000001001000 (
b00000000000000000000000000010010 U
b011101000110000101100111010111110110001101101000011001010110001101101011 c
b10000 b
b011000110110000101100011011010000110010101011111011011110111000000100000 d
#1560000
0!
#1570000
1!
b10000 a
1)
b00000000000000000000000000001110 O
b00000000000000000000000000001110 1
b011000110110000101100011011010000110010101011111011011110111000000100000 c
b00001 b
b011010010110010001101100011001010010000000100000001000000010000000100000 d
#1580000
0!
#1590000
1!
b00001 a
0H
0*
0)
b011010010110010001101100011001010010000000100000001000000010000000100000 c
b00010 b
b00000000000000000000000001001100 '
b1100 [
b00000000000000000000000000010011 &
b011101000110000101100111010111110110001101101000011001010110001101101011 d
#1600000
0!
#1610000
1!
b00000000000000000000000000010100 2
b111111111111111111111100010011 F
b00010 a
1H
1*
b00000000000000000000000001001100 (
b00000000000000000000000000010011 U
b011101000110000101100111010111110110001101101000011001010110001101101011 c
b10000 b
b011000110110000101100011011010000110010101011111011011110111000000100000 d
#1620000
0!
#1630000
1!
b10000 a
1)
b00000000000000000000000000001111 O
b00000000000000000000000000001111 1
b011000110110000101100011011010000110010101011111011011110111000000100000 c
b00001 b
b011010010110010001101100011001010010000000100000001000000010000000100000 d
#1640000
0!
#1650000
1!
b00001 a
0H
0*
0)
b011010010110010001101100011001010010000000100000001000000010000000100000 c
b00010 b
b00000000000000000000000001010000 '
b0000 [
b101 Z
b00000000000000000000000000010100 &
b011101000110000101100111010111110110001101101000011001010110001101101011 d
#1660000
0!
#1670000
1!
b00000000000000000000000000010101 2
b111111111111111111111100010100 F
b00010 a
1H
1*
b00000000000000000000000001010000 (
b00000000000000000000000000010100 U
0\
1_
0]
b011101000110000101100111010111110110001101101000011001010110001101101011 c
b01000 b
b011100100110010101100110011010010110110001101100001000000010000000100000 d
#1680000
0!
#1690000
1!
b01000 a
b00000000000000000000000000000110 N
b00000000000000000000000000000110 0
1J
1,
b0100 W
b00111111 P
b00111111 T
b00000000000000000000000001010000 M
b00000000000000000000000001010000 /
b011100100110010101100110011010010110110001101100001000000010000000100000 c
#1700000
0!
b00000000000000000000000000010100 -
#1710000
1!
b1000 W
b00000000000000000000000001010100 M
b00000000000000000000000001010100 /
#1720000
0!
b00000000000000000000000000010101 -
#1730000
1!
b1100 W
b00000000000000000000000001011000 M
b00000000000000000000000001011000 /
#1740000
0!
b00000000000000000000000000010110 -
#1750000
1!
1V
b0000 W
b00000000000000000000000001011100 M
b00000000000000000000000001011100 /
b10000 b
b011000110110000101100011011010000110010101011111011011110111000000100000 d
#1760000
0!
b00000000000000000000000000010111 -
#1770000
1!
b10000 a
1)
0V
b00111111 R
b011000110110000101100011011010000110010101011111011011110111000000100000 c
b00001 b
b011010010110010001101100011001010010000000100000001000000010000000100000 d
#1780000
0!
#1790000
1!
b00001 a
0H
0*
0)
0J
0,
b00000000000000000000000000000000 M
b00000000000000000000000000000000 /
b011010010110010001101100011001010010000000100000001000000010000000100000 c
b00010 b
b00000000000000000000000001010100 '
b0100 [
b00000000000000000000000000010101 &
b011101000110000101100111010111110110001101101000011001010110001101101011 d
#1800000
0!
#1810000
1!
b00000000000000000000000000010110 2
b111111111111111111111100010101 F
b00010 a
1H
1*
b00000000000000000000000001010100 (
b00000000000000000000000000010101 U
0_
1\
1]
b011101000110000101100111010111110110001101101000011001010110001101101011 c
b10000 b
b011000110110000101100011011010000110010101011111011011110111000000100000 d
#1820000
0!
#1830000
1!
b10000 a
1)
b00000000000000000000000000010000 O
b00000000000000000000000000010000 1
b011000110110000101100011011010000110010101011111011011110111000000100000 c
b00001 b
b011010010110010001101100011001010010000000100000001000000010000000100000 d
#1840000
0!
#1850000
1!
b00001 a
0H
0*
0)
b011010010110010001101100011001010010000000100000001000000010000000100000 c
b00010 b
b00000000000000000000000001011000 '
b1000 [
b00000000000000000000000000010110 &
b011101000110000101100111010111110110001101101000011001010110001101101011 d
#1860000
0!
#1870000
1!
b00000000000000000000000000010111 2
b111111111111111111111100010110 F
b00010 a
1H
1*
b00000000000000000000000001011000 (
b00000000000000000000000000010110 U
b011101000110000101100111010111110110001101101000011001010110001101101011 c
b10000 b
b011000110110000101100011011010000110010101011111011011110111000000100000 d
#1880000
0!
#1890000
1!
b10000 a
1)
b00000000000000000000000000010001 O
b00000000000000000000000000010001 1
b011000110110000101100011011010000110010101011111011011110111000000100000 c
b00001 b
b011010010110010001101100011001010010000000100000001000000010000000100000 d
#1900000
0!
#1910000
1!
b00001 a
0H
0*
0)
b011010010110010001101100011001010010000000100000001000000010000000100000 c
b00010 b
b00000000000000000000000001011100 '
b1100 [
b00000000000000000000000000010111 &
b011101000110000101100111010111110110001101101000011001010110001101101011 d
#1920000
0!
#1930000
1!
b00000000000000000000000000011000 2
b111111111111111111111100010111 F
b00010 a
1H
1*
b00000000000000000000000001011100 (
b00000000000000000000000000010111 U
b011101000110000101100111010111110110001101101000011001010110001101101011 c
b10000 b
b011000110110000101100011011010000110010101011111011011110111000000100000 d
#1940000
0!
#1950000
1!
b10000 a
1)
b00000000000000000000000000010010 O
b00000000000000000000000000010010 1
b011000110110000101100011011010000110010101011111011011110111000000100000 c
b00001 b
b011010010110010001101100011001010010000000100000001000000010000000100000 d
#1960000
0!
#1970000
1!
b00001 a
0H
0*
0)
b011010010110010001101100011001010010000000100000001000000010000000100000 c
b00010 b
b00000000000000000000000001100000 '
b0000 [
b110 Z
b00000000000000000000000000011000 &
b011101000110000101100111010111110110001101101000011001010110001101101011 d
#1980000
0!
#1990000
1!
b00000000000000000000000000011001 2
b111111111111111111111100011000 F
b00010 a
1H
1*
b00000000000000000000000001100000 (
b00000000000000000000000000011000 U
0\
1_
0]
b011101000110000101100111010111110110001101101000011001010110001101101011 c
b01000 b
b011100100110010101100110011010010110110001101100001000000010000000100000 d
#2000000
0!
#2010000
1!
b01000 a
b00000000000000000000000000000111 N
b00000000000000000000000000000111 0
1J
1,
b0100 W
b01111111 P
b01111111 T
b00000000000000000000000001100000 M
b00000000000000000000000001100000 /
b011100100110010101100110011010010110110001101100001000000010000000100000 c
